Alpha design
…
Data

This example is taken from Chapter “3.8 Analysis of an \(\alpha\)-design” of the course material “Mixed models for metric data (3402-451)” by Prof. Dr. Hans-Peter Piepho. It considers data published in John and Williams (1995) from a yield (t/ha) trial laid out as an alpha design. The trial had 24 genotypes (gen), 3 complete replicates (rep) and 6 incomplete blocks (inc.block) within each replicate. The block size was 4.

Import

# data (import via URL)
dataURL <- "https://raw.githubusercontent.com/SchmidtPaul/DSFAIR/master/data/John%26Williams1995.csv"
dat <- read_csv(dataURL)

dat

## # A tibble: 72 x 7
##     plot rep   inc.block gen   yield   row   col
##    <dbl> <chr> <chr>     <chr> <dbl> <dbl> <dbl>
##  1     1 Rep1  B1        G11    4.12     4     1
##  2     2 Rep1  B1        G04    4.45     3     1
##  3     3 Rep1  B1        G05    5.88     2     1
##  4     4 Rep1  B1        G22    4.58     1     1
##  5     5 Rep1  B2        G21    4.65     4     2
##  6     6 Rep1  B2        G10    4.17     3     2
##  7     7 Rep1  B2        G20    4.01     2     2
##  8     8 Rep1  B2        G02    4.34     1     2
##  9     9 Rep1  B3        G23    4.23     4     3
## 10    10 Rep1  B3        G14    4.76     3     3
## # ... with 62 more rows
…
