Augmented design
…
Data

This example is taken from Chapter “3.7 Analysis of a non-resolvable augmented design” of the course material “Mixed models for metric data (3402-451)” by Prof. Dr. Hans-Peter Piepho. It considers data published in Peterson (1994) from a yield trial laid out as an augmented design. The genotypes (gen) include 3 standards (st, ci, wa) and 30 new cultivars of interest. The trial was laid out in 6 blocks (block). The 3 standards are tested in each block, while each entry is tested in only one of the blocks. Therefore, the blocks are “incomplete blocks”.

Import

# data (import via URL)
dataURL <- "https://raw.githubusercontent.com/SchmidtPaul/DSFAIR/master/data/Pattersen1994.csv"
dat <- read_csv(dataURL)

dat

## # A tibble: 48 x 5
##    gen   yield block   row   col
##    <chr> <dbl> <chr> <dbl> <dbl>
##  1 st     2972 I         1     1
##  2 14     2405 I         2     1
##  3 26     2855 I         3     1
##  4 ci     2592 I         4     1
##  5 17     2572 I         5     1
##  6 wa     2608 I         6     1
##  7 22     2705 I         7     1
##  8 13     2391 I         8     1
##  9 st     3122 II        1     2
## 10 ci     3023 II        2     2
## # ... with 38 more rows
…
