Model diagnostics
…
\[ r_i = \hat{e}_i = y_i - \hat{y}_i
\]

Basically, whenever you fit a statistical model to a dataset, you can
obtain the respective residuals.

Example

Observed

Take this example dataset with variables x and
y and 29 observations.

## # A tibble: 29 × 2
##        x     y
##    <dbl> <dbl>
##  1  1.88  21  
##  2  1.62  21  
##  3  2.18  22.8
##  4  1.28  21.4
##  5  1.06  18.7
##  6  1.04  18.1
##  7  0.93  14.3
##  8  1.31  24.4
##  9  1.35  22.8
## 10  1.06  19.2
## # … with 19 more rows
…
