R Basics
…
One major aspect of the above-mentioned tidyverse I am making use of is formatting tables as tibbles instead of data.frames. A tibble “is a modern reimagining of the data.frame, keeping what time has proven to be effective, and throwing out what is not.” It is super simple to convert a data.frame into a tibble, but you must have the tidyverse R package {tibble} installed and loaded.

library(tibble)

tbl <- as_tibble(df)
tbl

## # A tibble: 30 x 2
##    weight group
##     <dbl> <fct>
##  1   4.17 ctrl 
##  2   5.58 ctrl 
##  3   5.18 ctrl 
##  4   6.11 ctrl 
##  5   4.5  ctrl 
##  6   4.61 ctrl 
##  7   5.17 ctrl 
##  8   4.53 ctrl 
##  9   5.33 ctrl 
## 10   5.14 ctrl 
## # ... with 20 more rows
…
