RCBD with 2 factors
…
Import

# data (import via URL)
dataURL <- "https://raw.githubusercontent.com/SchmidtPaul/DSFAIR/master/data/riceRCBD.csv"
dat <- read_csv(dataURL)

dat

## # A tibble: 72 × 6
##      row   col rep   N     G     yield
##    <dbl> <dbl> <chr> <chr> <chr> <dbl>
##  1     2     6 rep1  N1    A      4520
##  2     3     4 rep1  N2    A      5598
##  3     2     3 rep1  N4    A      6192
##  4     1     1 rep1  N6    A      8542
##  5     2     1 rep1  N3    A      5806
##  6     3     1 rep1  N5    A      7470
##  7     4     5 rep1  N1    B      4034
##  8     4     1 rep1  N2    B      6682
##  9     3     2 rep1  N4    B      6869
## 10     1     2 rep1  N6    B      6318
## # … with 62 more rows
…
