Repeated Measures RCBD
…
dat

## # A tibble: 100 × 8
##        y variety block  weekF plot  weekN varblock unit 
##    <dbl> <fct>   <fct>  <fct> <fct> <int>    <int> <fct>
##  1  5    var1    block1 week1 plot1     1        1 obs1 
##  2  4.84 var1    block1 week2 plot1     2        1 obs2 
##  3  4.02 var1    block1 week3 plot1     3        1 obs3 
##  4  3.75 var1    block1 week4 plot1     4        1 obs4 
##  5  3.13 var1    block1 week5 plot1     5        1 obs5 
##  6  4.42 var1    block2 week1 plot2     1        2 obs6 
##  7  4.3  var1    block2 week2 plot2     2        2 obs7 
##  8  3.67 var1    block2 week3 plot2     3        2 obs8 
##  9  3.23 var1    block2 week4 plot2     4        2 obs9 
## 10  2.83 var1    block2 week5 plot2     5        2 obs10
## # … with 90 more rows
…
