Row-column design
…
Data

This example is taken from Chapter “3.10 Analysis of a resolvable row-column design” of the course material “Mixed models for metric data (3402-451)” by Prof. Dr. Hans-Peter Piepho. It considers data published in Kempton and Fox (1997) from a yield trial laid out as a resolvable row-column design. The trial had 35 genotypes (gen), 2 complete replicates (rep) with 5 rows (row) and 7 columns (col). Thus, a complete replicate is subdivided into incomplete rows and columns.

Import

# data (import via URL)
dataURL <- "https://raw.githubusercontent.com/SchmidtPaul/DSFAIR/master/data/Kempton%26Fox1997.csv"
dat <- read_csv(dataURL)

dat

## # A tibble: 70 x 5
##    rep     row   col gen   yield
##    <chr> <dbl> <dbl> <chr> <dbl>
##  1 Rep1      1     1 G20    3.77
##  2 Rep1      1     2 G04    3.21
##  3 Rep1      1     3 G33    4.55
##  4 Rep1      1     4 G28    4.09
##  5 Rep1      1     5 G07    5.05
##  6 Rep1      1     6 G12    4.19
##  7 Rep1      1     7 G30    3.27
##  8 Rep1      2     1 G10    3.44
##  9 Rep1      2     2 G14    4.3 
## 10 Rep1      2     3 G16   NA   
## # ... with 60 more rows
…
