A peculiar split-plot design
…
The trials were conducted

at 2 locations (Loc with levels Berlin and Paris). Moreover, the these trials were repeated

across 2 years (Yea with levels 1989 and 1990).

Thus, there are 2 trials with repeated measures across 2 years, respectively. Similar experimental designs (with different randomizations) were used at each location and in each year.

# data (import via URL)
dataURL <- "https://raw.githubusercontent.com/SchmidtPaul/DSFAIR/master/data/StreetFruit.csv"
dat <- read_csv(dataURL)

dat

## # A tibble: 144 x 9
##      Yea Loc    Str     Fru        Blo     Yie   row   col Plot 
##    <dbl> <chr>  <chr>   <chr>      <chr> <dbl> <dbl> <dbl> <chr>
##  1  1989 Berlin Control Apple      B1     47.9     1     1 B1   
##  2  1989 Berlin Control Strawberry B1     45.3     1     2 B2   
##  3  1989 Berlin Control Banana     B1     44.7     1     3 B3   
##  4  1989 Berlin Control Strawberry B2     45.6     1     4 B4   
##  5  1989 Berlin Control Apple      B2     47.3     1     5 B5   
##  6  1989 Berlin Control Banana     B2     45.0     1     6 B6   
##  7  1989 Berlin Control Banana     B3     44.5     1     7 B7   
##  8  1989 Berlin Control Apple      B3     47.2     1     8 B8   
##  9  1989 Berlin Control Strawberry B3     45.8     1     9 B9   
## 10  1989 Berlin Control Strawberry B4     47.1     1    10 B10  
## # ... with 134 more rows
…
