Split-plot design
…
Data

This example is taken from Chapter “5 Split-plots” of the course material “Mixed models for metric data (3402-451)” by Prof. Dr. Hans-Peter Piepho. It considers slightly modified version of data published in Gomez & Gomez (1984) from a yield (kg/ha) trial laid out as a split-plot design. The trial had 4 genotypes (G), 6 nitrogen levels (N or n_amount) with 3 complete replicates (rep) and 6 incomplete blocks (mainplot) within each replicate.

Import

# data (import via URL)
dataURL <- "https://raw.githubusercontent.com/SchmidtPaul/DSFAIR/master/data/Gomez%26Gomez1984.csv"
dat <- read_csv(dataURL)

dat

## # A tibble: 72 x 8
##    yield   row   col rep   mainplot G     N     n_amount
##    <dbl> <dbl> <dbl> <chr> <chr>    <chr> <chr>    <dbl>
##  1  4520     4     1 rep1  mp1      A     N1           0
##  2  5598     2     2 rep1  mp2      A     N2          60
##  3  6192     1     3 rep1  mp3      A     N4         120
##  4  8542     2     4 rep1  mp4      A     N6         180
##  5  5806     2     5 rep1  mp5      A     N3          90
##  6  7470     1     6 rep1  mp6      A     N5         150
##  7  4034     2     1 rep1  mp1      B     N1           0
##  8  6682     4     2 rep1  mp2      B     N2          60
##  9  6869     3     3 rep1  mp3      B     N4         120
## 10  6318     4     4 rep1  mp4      B     N6         180
## # ... with 62 more rows
…
