Split-plot design
…
Data

This example is taken from Chapter “4.1 The sorghum experiment” of the course material “Mixed models for metric data (3402-451)” by Prof. Dr. Hans-Peter Piepho. It considers data published in Piepho (1997) from a greenhouse experiment with sorghum, three intensities of double use of grain and leaves were tested: (1) control (grain only) Ctrl; (2) removal of all leaves except top leaf Top1; (3) removal of all leaves except top six leaves Top6.

Import

# data (import via URL)
dataURL <- "https://raw.githubusercontent.com/SchmidtPaul/DSFAIR/master/data/Piepho1997.csv"
dat <- read_csv(dataURL)

dat

## # A tibble: 120 x 6
##    treat block plant   TKW   row   col
##    <chr> <chr> <dbl> <dbl> <dbl> <dbl>
##  1 Ctrl  I         1  41.9     1     5
##  2 Ctrl  I         2  30.0     2     5
##  3 Ctrl  I         3  27.8     3     5
##  4 Ctrl  I         4  29.7     4     5
##  5 Ctrl  I         5  27.8     5     5
##  6 Ctrl  I         6  33.9     1     6
##  7 Ctrl  I         7  34.8     2     6
##  8 Ctrl  I         8  30       3     6
##  9 Ctrl  I         9  27.7     4     6
## 10 Ctrl  I        10  32.7     5     6
## # ... with 110 more rows
…
